CODE  NAME                TOTAL INCOME
CHB   Chanthaburi         $84,633,703.53
CHN   Chonburi            $80,236,365.98
RYG   Rayong              $79,331,645.58
TRA   Trat                $82,093,369.27
PKN   Prachinburi         $78,689,183.59
SNK   Sa Kaeo             $77,124,073.93
